{
  "count": 590,
  "next": "https://i18n.elypia.org/api/changes/?page=2",
  "previous": null,
  "results": [
    {
      "unit": null,
      "component": null,
      "translation": null,
      "glossary_term": null,
      "user": "https://i18n.elypia.org/api/users/admin/",
      "author": "https://i18n.elypia.org/api/users/admin/",
      "timestamp": "2020-04-20T12:29:56.795396Z",
      "action": 50,
      "target": "",
      "id": 2,
      "action_name": "Created project",
      "url": "https://i18n.elypia.org/api/changes/2/"
    },
    {
      "unit": null,
      "component": "https://i18n.elypia.org/api/components/elypia-website/website/",
      "translation": null,
      "glossary_term": null,
      "user": "https://i18n.elypia.org/api/users/admin/",
      "author": "https://i18n.elypia.org/api/users/admin/",
      "timestamp": "2020-04-20T13:13:45.709156Z",
      "action": 51,
      "target": "",
      "id": 47,
      "action_name": "Created component",
      "url": "https://i18n.elypia.org/api/changes/47/"
    },
    {
      "unit": null,
      "component": "https://i18n.elypia.org/api/components/elypia-website/website/",
      "translation": null,
      "glossary_term": null,
      "user": null,
      "author": null,
      "timestamp": "2020-04-20T13:13:48.780981Z",
      "action": 21,
      "target": "",
      "id": 48,
      "action_name": "Rebased repository",
      "url": "https://i18n.elypia.org/api/changes/48/"
    },
    {
      "unit": null,
      "component": "https://i18n.elypia.org/api/components/elypia-website/website/",
      "translation": "https://i18n.elypia.org/api/translations/elypia-website/website/en/",
      "glossary_term": null,
      "user": null,
      "author": null,
      "timestamp": "2020-04-20T13:13:51.288260Z",
      "action": 0,
      "target": "",
      "id": 49,
      "action_name": "Resource update",
      "url": "https://i18n.elypia.org/api/changes/49/"
    },
    {
      "unit": null,
      "component": "https://i18n.elypia.org/api/components/elypia-website/website/",
      "translation": "https://i18n.elypia.org/api/translations/elypia-website/website/bs_Latn/",
      "glossary_term": null,
      "user": null,
      "author": null,
      "timestamp": "2020-04-20T13:13:52.698980Z",
      "action": 0,
      "target": "",
      "id": 50,
      "action_name": "Resource update",
      "url": "https://i18n.elypia.org/api/changes/50/"
    },
    {
      "unit": null,
      "component": "https://i18n.elypia.org/api/components/elypia-website/website/",
      "translation": "https://i18n.elypia.org/api/translations/elypia-website/website/en_Simple/",
      "glossary_term": null,
      "user": null,
      "author": null,
      "timestamp": "2020-04-20T13:13:53.769863Z",
      "action": 0,
      "target": "",
      "id": 51,
      "action_name": "Resource update",
      "url": "https://i18n.elypia.org/api/changes/51/"
    },
    {
      "unit": null,
      "component": "https://i18n.elypia.org/api/components/elypia-website/website/",
      "translation": "https://i18n.elypia.org/api/translations/elypia-website/website/fr/",
      "glossary_term": null,
      "user": null,
      "author": null,
      "timestamp": "2020-04-20T13:13:54.918814Z",
      "action": 0,
      "target": "",
      "id": 52,
      "action_name": "Resource update",
      "url": "https://i18n.elypia.org/api/changes/52/"
    },
    {
      "unit": null,
      "component": "https://i18n.elypia.org/api/components/elypia-website/website/",
      "translation": "https://i18n.elypia.org/api/translations/elypia-website/website/nl/",
      "glossary_term": null,
      "user": null,
      "author": null,
      "timestamp": "2020-04-20T13:13:55.957960Z",
      "action": 0,
      "target": "",
      "id": 53,
      "action_name": "Resource update",
      "url": "https://i18n.elypia.org/api/changes/53/"
    },
    {
      "unit": null,
      "component": "https://i18n.elypia.org/api/components/elypia-website/website/",
      "translation": "https://i18n.elypia.org/api/translations/elypia-website/website/bs_Latn/",
      "glossary_term": null,
      "user": null,
      "author": null,
      "timestamp": "2020-04-20T13:13:56.406125Z",
      "action": 44,
      "target": "",
      "id": 54,
      "action_name": "New string to translate",
      "url": "https://i18n.elypia.org/api/changes/54/"
    },
    {
      "unit": null,
      "component": "https://i18n.elypia.org/api/components/elypia-website/website/",
      "translation": "https://i18n.elypia.org/api/translations/elypia-website/website/en_Simple/",
      "glossary_term": null,
      "user": null,
      "author": null,
      "timestamp": "2020-04-20T13:13:56.410639Z",
      "action": 44,
      "target": "",
      "id": 55,
      "action_name": "New string to translate",
      "url": "https://i18n.elypia.org/api/changes/55/"
    },
    {
      "unit": null,
      "component": "https://i18n.elypia.org/api/components/elypia-website/website/",
      "translation": "https://i18n.elypia.org/api/translations/elypia-website/website/fr/",
      "glossary_term": null,
      "user": null,
      "author": null,
      "timestamp": "2020-04-20T13:13:56.415394Z",
      "action": 44,
      "target": "",
      "id": 56,
      "action_name": "New string to translate",
      "url": "https://i18n.elypia.org/api/changes/56/"
    },
    {
      "unit": null,
      "component": "https://i18n.elypia.org/api/components/elypia-website/website/",
      "translation": "https://i18n.elypia.org/api/translations/elypia-website/website/nl/",
      "glossary_term": null,
      "user": null,
      "author": null,
      "timestamp": "2020-04-20T13:13:56.419811Z",
      "action": 44,
      "target": "",
      "id": 57,
      "action_name": "New string to translate",
      "url": "https://i18n.elypia.org/api/changes/57/"
    },
    {
      "unit": "https://i18n.elypia.org/api/units/3508/",
      "component": "https://i18n.elypia.org/api/components/elypia-website/website/",
      "translation": "https://i18n.elypia.org/api/translations/elypia-website/website/fr/",
      "glossary_term": null,
      "user": "https://i18n.elypia.org/api/users/oupsa/",
      "author": "https://i18n.elypia.org/api/users/oupsa/",
      "timestamp": "2020-04-20T14:11:13.841260Z",
      "action": 45,
      "target": "",
      "id": 58,
      "action_name": "New contributor",
      "url": "https://i18n.elypia.org/api/changes/58/"
    },
    {
      "unit": "https://i18n.elypia.org/api/units/3508/",
      "component": "https://i18n.elypia.org/api/components/elypia-website/website/",
      "translation": "https://i18n.elypia.org/api/translations/elypia-website/website/fr/",
      "glossary_term": null,
      "user": "https://i18n.elypia.org/api/users/oupsa/",
      "author": "https://i18n.elypia.org/api/users/oupsa/",
      "timestamp": "2020-04-20T14:11:13.843122Z",
      "action": 5,
      "target": "Même si nous essayons de couvrir nos frais grâce à des abonnements et à divers services, les dons sont pour nous importants pour que la majorité de ce que nous proposont reste gratuit. En tant qu'organisme à but non lucratif, le financement nous permet de continuer à développer des logiciels gratuits et open-source et de pousser à fournir des services gratuits ou abordables.",
      "id": 59,
      "action_name": "New translation",
      "url": "https://i18n.elypia.org/api/changes/59/"
    },
    {
      "unit": "https://i18n.elypia.org/api/units/3509/",
      "component": "https://i18n.elypia.org/api/components/elypia-website/website/",
      "translation": "https://i18n.elypia.org/api/translations/elypia-website/website/fr/",
      "glossary_term": null,
      "user": "https://i18n.elypia.org/api/users/oupsa/",
      "author": "https://i18n.elypia.org/api/users/oupsa/",
      "timestamp": "2020-04-20T14:12:55.210455Z",
      "action": 5,
      "target": "En tant que société d'intérêt communautaire, nous pourrons également générer des revenus en proposant des abonnements et des services ou en fournissant des solutions hébergées pour nos projets open source. Les dons ne seraient pas la seule forme de revenu pour Elypia mais fortement encouragés et appréciés.",
      "id": 60,
      "action_name": "New translation",
      "url": "https://i18n.elypia.org/api/changes/60/"
    },
    {
      "unit": "https://i18n.elypia.org/api/units/3513/",
      "component": "https://i18n.elypia.org/api/components/elypia-website/website/",
      "translation": "https://i18n.elypia.org/api/translations/elypia-website/website/fr/",
      "glossary_term": null,
      "user": "https://i18n.elypia.org/api/users/oupsa/",
      "author": "https://i18n.elypia.org/api/users/oupsa/",
      "timestamp": "2020-04-20T14:16:42.246727Z",
      "action": 5,
      "target": "Nom du compte:",
      "id": 62,
      "action_name": "New translation",
      "url": "https://i18n.elypia.org/api/changes/62/"
    },
    {
      "unit": "https://i18n.elypia.org/api/units/3513/",
      "component": "https://i18n.elypia.org/api/components/elypia-website/website/",
      "translation": "https://i18n.elypia.org/api/translations/elypia-website/website/fr/",
      "glossary_term": null,
      "user": "https://i18n.elypia.org/api/users/oupsa/",
      "author": "https://i18n.elypia.org/api/users/oupsa/",
      "timestamp": "2020-04-20T14:16:51.111117Z",
      "action": 2,
      "target": "Nom du compte :",
      "id": 63,
      "action_name": "Translation changed",
      "url": "https://i18n.elypia.org/api/changes/63/"
    },
    {
      "unit": "https://i18n.elypia.org/api/units/3514/",
      "component": "https://i18n.elypia.org/api/components/elypia-website/website/",
      "translation": "https://i18n.elypia.org/api/translations/elypia-website/website/fr/",
      "glossary_term": null,
      "user": "https://i18n.elypia.org/api/users/oupsa/",
      "author": "https://i18n.elypia.org/api/users/oupsa/",
      "timestamp": "2020-04-20T14:17:16.359136Z",
      "action": 5,
      "target": "Numéro de compte:",
      "id": 64,
      "action_name": "New translation",
      "url": "https://i18n.elypia.org/api/changes/64/"
    },
    {
      "unit": "https://i18n.elypia.org/api/units/3514/",
      "component": "https://i18n.elypia.org/api/components/elypia-website/website/",
      "translation": "https://i18n.elypia.org/api/translations/elypia-website/website/fr/",
      "glossary_term": null,
      "user": "https://i18n.elypia.org/api/users/oupsa/",
      "author": "https://i18n.elypia.org/api/users/oupsa/",
      "timestamp": "2020-04-20T14:17:24.763130Z",
      "action": 2,
      "target": "Numéro de compte :",
      "id": 65,
      "action_name": "Translation changed",
      "url": "https://i18n.elypia.org/api/changes/65/"
    },
    {
      "unit": "https://i18n.elypia.org/api/units/3515/",
      "component": "https://i18n.elypia.org/api/components/elypia-website/website/",
      "translation": "https://i18n.elypia.org/api/translations/elypia-website/website/fr/",
      "glossary_term": null,
      "user": "https://i18n.elypia.org/api/users/oupsa/",
      "author": "https://i18n.elypia.org/api/users/oupsa/",
      "timestamp": "2020-04-20T14:19:10.874731Z",
      "action": 5,
      "target": "Code guichet:",
      "id": 66,
      "action_name": "New translation",
      "url": "https://i18n.elypia.org/api/changes/66/"
    }
  ]
}
