{
  "count": 6272,
  "next": "https://i18n.elypia.org/api/units/?page=2",
  "previous": null,
  "results": [
    {
      "translation": "https://i18n.elypia.org/api/translations/elypia-website/website/en/",
      "source": "Elypia is a Non-Profit CIC",
      "previous_source": "",
      "target": "Elypia is a Non-Profit CIC",
      "id_hash": -9068938388058288084,
      "content_hash": 1545632018536340979,
      "location": "",
      "context": "ng2.template///4b55867fcad9a6b37942dac61f366f51fef0be2a",
      "note": "",
      "flags": "",
      "fuzzy": false,
      "translated": true,
      "approved": false,
      "position": 1,
      "has_suggestion": false,
      "has_comment": false,
      "has_failing_check": false,
      "num_words": 5,
      "priority": 100,
      "id": 3177,
      "web_url": "https://i18n.elypia.org/translate/elypia-website/website/en/?checksum=224a895d9e1d02c",
      "url": "https://i18n.elypia.org/api/units/3177/"
    },
    {
      "translation": "https://i18n.elypia.org/api/translations/elypia-website/website/en/",
      "source": "While we try to be sustainable through subscriptions and services, it's favorable to receive donations to keep everything as free as possible. As a non-profit, funding is what allows us to continue to develop free and open-source software and push to provide free or affordable services.",
      "previous_source": "",
      "target": "While we try to be sustainable through subscriptions and services, it's favorable to receive donations to keep everything as free as possible. As a non-profit, funding is what allows us to continue to develop free and open-source software and push to provide free or affordable services.",
      "id_hash": 2061646849997846370,
      "content_hash": 3177164032314751640,
      "location": "",
      "context": "ng2.template///b7ca4488779e42bfeefe827d4f4706f4f9136b87",
      "note": "",
      "flags": "",
      "fuzzy": false,
      "translated": true,
      "approved": false,
      "position": 2,
      "has_suggestion": false,
      "has_comment": false,
      "has_failing_check": false,
      "num_words": 46,
      "priority": 100,
      "id": 3178,
      "web_url": "https://i18n.elypia.org/translate/elypia-website/website/en/?checksum=9c9c70e3126cb762",
      "url": "https://i18n.elypia.org/api/units/3178/"
    },
    {
      "translation": "https://i18n.elypia.org/api/translations/elypia-website/website/en/",
      "source": "As a Community Interest Company we will also be able to generate income through selling subscriptions and services or by providing hosted solutions for our open-source projects. Donations will not be the only form of income for Elypia but strongly encouraged and appreciated.",
      "previous_source": "",
      "target": "As a Community Interest Company we will also be able to generate income through selling subscriptions and services or by providing hosted solutions for our open-source projects. Donations will not be the only form of income for Elypia but strongly encouraged and appreciated.",
      "id_hash": 4492251633941160185,
      "content_hash": -2036948241282707769,
      "location": "",
      "context": "ng2.template///36b945004457fa674ef4598444390392dfcac265",
      "note": "",
      "flags": "",
      "fuzzy": false,
      "translated": true,
      "approved": false,
      "position": 3,
      "has_suggestion": false,
      "has_comment": false,
      "has_failing_check": false,
      "num_words": 43,
      "priority": 100,
      "id": 3179,
      "web_url": "https://i18n.elypia.org/translate/elypia-website/website/en/?checksum=be57af0f62bb20f9",
      "url": "https://i18n.elypia.org/api/units/3179/"
    },
    {
      "translation": "https://i18n.elypia.org/api/translations/elypia-website/website/en/",
      "source": "Where do donations go?",
      "previous_source": "",
      "target": "Where do donations go?",
      "id_hash": -8738250795273943287,
      "content_hash": -1932019339606532155,
      "location": "",
      "context": "ng2.template///faa2e36d8a02346d34d5960e4b104ace3c98c127",
      "note": "",
      "flags": "",
      "fuzzy": false,
      "translated": true,
      "approved": false,
      "position": 4,
      "has_suggestion": false,
      "has_comment": false,
      "has_failing_check": false,
      "num_words": 4,
      "priority": 100,
      "id": 3180,
      "web_url": "https://i18n.elypia.org/translate/elypia-website/website/en/?checksum=6bb7f32ed6c0709",
      "url": "https://i18n.elypia.org/api/units/3180/"
    },
    {
      "translation": "https://i18n.elypia.org/api/translations/elypia-website/website/en/",
      "source": "Donate by transfering money or setting up a standing order directly to our company bank account.",
      "previous_source": "",
      "target": "Donate by transfering money or setting up a standing order directly to our company bank account.",
      "id_hash": 7746518925330879099,
      "content_hash": 2688814881403120685,
      "location": "",
      "context": "ng2.template///b56d5a5b4954332e22e3693c13eafb66c7b4fa36",
      "note": "",
      "flags": "",
      "fuzzy": false,
      "translated": true,
      "approved": false,
      "position": 6,
      "has_suggestion": false,
      "has_comment": false,
      "has_failing_check": false,
      "num_words": 16,
      "priority": 100,
      "id": 3182,
      "web_url": "https://i18n.elypia.org/translate/elypia-website/website/en/?checksum=eb8129eb7630127b",
      "url": "https://i18n.elypia.org/api/units/3182/"
    },
    {
      "translation": "https://i18n.elypia.org/api/translations/elypia-website/website/en/",
      "source": "Account Name:",
      "previous_source": "",
      "target": "Account Name:",
      "id_hash": 1884734826290047719,
      "content_hash": -3527627865225760458,
      "location": "",
      "context": "ng2.template///f7ec3699e8d381ae4371066b98b36e22a2478ce9",
      "note": "",
      "flags": "",
      "fuzzy": false,
      "translated": true,
      "approved": false,
      "position": 7,
      "has_suggestion": false,
      "has_comment": false,
      "has_failing_check": false,
      "num_words": 2,
      "priority": 100,
      "id": 3183,
      "web_url": "https://i18n.elypia.org/translate/elypia-website/website/en/?checksum=9a27ec56b8d36ae7",
      "url": "https://i18n.elypia.org/api/units/3183/"
    },
    {
      "translation": "https://i18n.elypia.org/api/translations/elypia-website/website/en/",
      "source": "Account Number:",
      "previous_source": "",
      "target": "Account Number:",
      "id_hash": 8397479787440076445,
      "content_hash": 3072730136356740949,
      "location": "",
      "context": "ng2.template///c60cf19eb3d49a7f0e045881ebd9733f74b6dad8",
      "note": "",
      "flags": "",
      "fuzzy": false,
      "translated": true,
      "approved": false,
      "position": 8,
      "has_suggestion": false,
      "has_comment": false,
      "has_failing_check": false,
      "num_words": 2,
      "priority": 100,
      "id": 3184,
      "web_url": "https://i18n.elypia.org/translate/elypia-website/website/en/?checksum=f489d75ffae3769d",
      "url": "https://i18n.elypia.org/api/units/3184/"
    },
    {
      "translation": "https://i18n.elypia.org/api/translations/elypia-website/website/en/",
      "source": "Sort Code:",
      "previous_source": "",
      "target": "Sort Code:",
      "id_hash": -5069512433284760012,
      "content_hash": 7134886845433899359,
      "location": "",
      "context": "ng2.template///8fbb4b710b04174effd1bb999565583d64ddf8e4",
      "note": "",
      "flags": "",
      "fuzzy": false,
      "translated": true,
      "approved": false,
      "position": 9,
      "has_suggestion": false,
      "has_comment": false,
      "has_failing_check": false,
      "num_words": 2,
      "priority": 100,
      "id": 3185,
      "web_url": "https://i18n.elypia.org/translate/elypia-website/website/en/?checksum=39a5794d25a2be34",
      "url": "https://i18n.elypia.org/api/units/3185/"
    },
    {
      "translation": "https://i18n.elypia.org/api/translations/elypia-website/website/en/",
      "source": "Bank (UK/GBP Only)",
      "previous_source": "",
      "target": "Bank (UK/GBP Only)",
      "id_hash": -2363017573206436977,
      "content_hash": 1819641599935751204,
      "location": "",
      "context": "ng2.template///d85ad59682b27633be6ded5942692b892fe7467a",
      "note": "",
      "flags": "",
      "fuzzy": false,
      "translated": true,
      "approved": false,
      "position": 10,
      "has_suggestion": false,
      "has_comment": false,
      "has_failing_check": false,
      "num_words": 3,
      "priority": 100,
      "id": 3186,
      "web_url": "https://i18n.elypia.org/translate/elypia-website/website/en/?checksum=5f34e0097706538f",
      "url": "https://i18n.elypia.org/api/units/3186/"
    },
    {
      "translation": "https://i18n.elypia.org/api/translations/elypia-website/website/en/",
      "source": "Donate directly on the site with your debit or credit card. All donations using this method are processed by Stripe; we won't process or store your information.",
      "previous_source": "",
      "target": "Donate directly on the site with your debit or credit card. All donations using this method are processed by Stripe; we won't process or store your information.",
      "id_hash": -1969446952352042860,
      "content_hash": -2388633783789414867,
      "location": "",
      "context": "ng2.template///8184c05d8fd8d596166564a65b926f266a071533",
      "note": "",
      "flags": "",
      "fuzzy": false,
      "translated": true,
      "approved": false,
      "position": 11,
      "has_suggestion": false,
      "has_comment": false,
      "has_failing_check": false,
      "num_words": 27,
      "priority": 100,
      "id": 3187,
      "web_url": "https://i18n.elypia.org/translate/elypia-website/website/en/?checksum=64ab1e6e7114b094",
      "url": "https://i18n.elypia.org/api/units/3187/"
    },
    {
      "translation": "https://i18n.elypia.org/api/translations/elypia-website/website/en/",
      "source": "Card (Stripe)",
      "previous_source": "",
      "target": "Card (Stripe)",
      "id_hash": -1946788047593209630,
      "content_hash": 4068807380757792374,
      "location": "",
      "context": "ng2.template///4eb36eee0c420c1f329eedecd87f2770d41df484",
      "note": "",
      "flags": "",
      "fuzzy": false,
      "translated": true,
      "approved": false,
      "position": 12,
      "has_suggestion": false,
      "has_comment": false,
      "has_failing_check": false,
      "num_words": 2,
      "priority": 100,
      "id": 3188,
      "web_url": "https://i18n.elypia.org/translate/elypia-website/website/en/?checksum=64fb9e95d23b00e2",
      "url": "https://i18n.elypia.org/api/units/3188/"
    },
    {
      "translation": "https://i18n.elypia.org/api/translations/elypia-website/website/en/",
      "source": "If you have a PayPal account you can donate using the attached credit/debit card, bank account, or PayPal balance.",
      "previous_source": "",
      "target": "If you have a PayPal account you can donate using the attached credit/debit card, bank account, or PayPal balance.",
      "id_hash": -2771766426833230094,
      "content_hash": 8822691119824613963,
      "location": "",
      "context": "ng2.template///a15ed1dd7a4d96a707c1d7cdb0c760bcb20e1ee8",
      "note": "",
      "flags": "",
      "fuzzy": false,
      "translated": true,
      "approved": false,
      "position": 13,
      "has_suggestion": false,
      "has_comment": false,
      "has_failing_check": false,
      "num_words": 19,
      "priority": 100,
      "id": 3189,
      "web_url": "https://i18n.elypia.org/translate/elypia-website/website/en/?checksum=5988b51ec84066f2",
      "url": "https://i18n.elypia.org/api/units/3189/"
    },
    {
      "translation": "https://i18n.elypia.org/api/translations/elypia-website/website/en/",
      "source": "PayPal",
      "previous_source": "",
      "target": "PayPal",
      "id_hash": 3414244472641276021,
      "content_hash": -3565837651643337882,
      "location": "",
      "context": "ng2.template///7b91a702d1a370fb73395068c225031722ea42bf",
      "note": "",
      "flags": "",
      "fuzzy": false,
      "translated": true,
      "approved": false,
      "position": 14,
      "has_suggestion": false,
      "has_comment": false,
      "has_failing_check": false,
      "num_words": 1,
      "priority": 100,
      "id": 3190,
      "web_url": "https://i18n.elypia.org/translate/elypia-website/website/en/?checksum=af61d542281fc875",
      "url": "https://i18n.elypia.org/api/units/3190/"
    },
    {
      "translation": "https://i18n.elypia.org/api/translations/elypia-website/website/en/",
      "source": "You can support us by purchasing our branded merchandise.",
      "previous_source": "",
      "target": "You can support us by purchasing our branded merchandise.",
      "id_hash": -3808076802548149118,
      "content_hash": 7899870111844047350,
      "location": "",
      "context": "ng2.template///f0a53c6d53b13f2df560312133d3ff2009cf6c60",
      "note": "",
      "flags": "",
      "fuzzy": false,
      "translated": true,
      "approved": false,
      "position": 17,
      "has_suggestion": false,
      "has_comment": false,
      "has_failing_check": false,
      "num_words": 9,
      "priority": 100,
      "id": 3191,
      "web_url": "https://i18n.elypia.org/translate/elypia-website/website/en/?checksum=4b26fe52fab65482",
      "url": "https://i18n.elypia.org/api/units/3191/"
    },
    {
      "translation": "https://i18n.elypia.org/api/translations/elypia-website/website/en/",
      "source": "Redbubble",
      "previous_source": "",
      "target": "Redbubble",
      "id_hash": -1151530954259542670,
      "content_hash": -1495088467119474042,
      "location": "",
      "context": "ng2.template///396b64d7eb70deee0075f9256bb991890051feb5",
      "note": "",
      "flags": "",
      "fuzzy": false,
      "translated": true,
      "approved": false,
      "position": 18,
      "has_suggestion": false,
      "has_comment": false,
      "has_failing_check": true,
      "num_words": 1,
      "priority": 100,
      "id": 3192,
      "web_url": "https://i18n.elypia.org/translate/elypia-website/website/en/?checksum=7004f0b2bb7e4d72",
      "url": "https://i18n.elypia.org/api/units/3192/"
    },
    {
      "translation": "https://i18n.elypia.org/api/translations/elypia-website/website/en/",
      "source": "This is the registered office and correspondence address for Elypia, not base of work or residence.",
      "previous_source": "",
      "target": "This is the registered office and correspondence address for Elypia, not base of work or residence.",
      "id_hash": 5695471990977058045,
      "content_hash": -2808865487441184087,
      "location": "",
      "context": "ng2.template///98d33199f9bbf639ba8c43f881d73c763e5e4f7b",
      "note": "",
      "flags": "",
      "fuzzy": false,
      "translated": true,
      "approved": false,
      "position": 20,
      "has_suggestion": false,
      "has_comment": false,
      "has_failing_check": false,
      "num_words": 16,
      "priority": 100,
      "id": 3193,
      "web_url": "https://i18n.elypia.org/translate/elypia-website/website/en/?checksum=cf0a6199925fd4fd",
      "url": "https://i18n.elypia.org/api/units/3193/"
    },
    {
      "translation": "https://i18n.elypia.org/api/translations/elypia-website/website/en/",
      "source": "Source Code",
      "previous_source": "",
      "target": "Source Code",
      "id_hash": -8177834702682777219,
      "content_hash": 8085521670338906710,
      "location": "",
      "context": "ng2.template///76b8339d5b6a70b6871600727ac3a9510e59d26f",
      "note": "",
      "flags": "",
      "fuzzy": false,
      "translated": true,
      "approved": false,
      "position": 21,
      "has_suggestion": false,
      "has_comment": false,
      "has_failing_check": false,
      "num_words": 2,
      "priority": 100,
      "id": 3194,
      "web_url": "https://i18n.elypia.org/translate/elypia-website/website/en/?checksum=e827eaa7abb197d",
      "url": "https://i18n.elypia.org/api/units/3194/"
    },
    {
      "translation": "https://i18n.elypia.org/api/translations/elypia-website/website/en/",
      "source": "Copyright",
      "previous_source": "",
      "target": "Copyright",
      "id_hash": 1795976927319370501,
      "content_hash": 8977045986728676276,
      "location": "",
      "context": "ng2.template///cc82fa89983785cb60daa0a7516c611fc02b5cd1",
      "note": "",
      "flags": "",
      "fuzzy": false,
      "translated": true,
      "approved": false,
      "position": 25,
      "has_suggestion": false,
      "has_comment": false,
      "has_failing_check": false,
      "num_words": 1,
      "priority": 100,
      "id": 3196,
      "web_url": "https://i18n.elypia.org/translate/elypia-website/website/en/?checksum=98ec977ff9ab2b05",
      "url": "https://i18n.elypia.org/api/units/3196/"
    },
    {
      "translation": "https://i18n.elypia.org/api/translations/elypia-website/website/en/",
      "source": "Press Kit",
      "previous_source": "",
      "target": "Press Kit",
      "id_hash": 2883849327811787248,
      "content_hash": -7519109988916352798,
      "location": "",
      "context": "ng2.template///14dd90d51c67e6935128bce4b11139d0461a69ac",
      "note": "",
      "flags": "",
      "fuzzy": false,
      "translated": true,
      "approved": false,
      "position": 26,
      "has_suggestion": false,
      "has_comment": false,
      "has_failing_check": false,
      "num_words": 2,
      "priority": 100,
      "id": 3197,
      "web_url": "https://i18n.elypia.org/translate/elypia-website/website/en/?checksum=a8057daf31f879f0",
      "url": "https://i18n.elypia.org/api/units/3197/"
    },
    {
      "translation": "https://i18n.elypia.org/api/translations/elypia-website/website/en/",
      "source": "Guidelines",
      "previous_source": "",
      "target": "Guidelines",
      "id_hash": 4213892846164406001,
      "content_hash": 3268315087803243503,
      "location": "",
      "context": "ng2.template///1f86e01b6434153e65151d92721bba90520d89f9",
      "note": "",
      "flags": "",
      "fuzzy": false,
      "translated": true,
      "approved": false,
      "position": 28,
      "has_suggestion": false,
      "has_comment": false,
      "has_failing_check": false,
      "num_words": 1,
      "priority": 100,
      "id": 3199,
      "web_url": "https://i18n.elypia.org/translate/elypia-website/website/en/?checksum=ba7ac137a9306ef1",
      "url": "https://i18n.elypia.org/api/units/3199/"
    }
  ]
}
