{
  "count": 36,
  "next": "https://i18n.elypia.org/api/components/alexis/alexis-messages/changes/?page=2",
  "previous": null,
  "results": [
    {
      "unit": null,
      "component": "https://i18n.elypia.org/api/components/alexis/alexis-messages/",
      "translation": null,
      "glossary_term": null,
      "user": "https://i18n.elypia.org/api/users/admin/",
      "author": "https://i18n.elypia.org/api/users/admin/",
      "timestamp": "2020-06-17T03:34:28.662939Z",
      "action": 51,
      "target": "",
      "id": 1825,
      "action_name": "Created component",
      "url": "https://i18n.elypia.org/api/changes/1825/"
    },
    {
      "unit": null,
      "component": "https://i18n.elypia.org/api/components/alexis/alexis-messages/",
      "translation": null,
      "glossary_term": null,
      "user": null,
      "author": null,
      "timestamp": "2020-06-17T03:34:29.964185Z",
      "action": 21,
      "target": "",
      "id": 1826,
      "action_name": "Rebased repository",
      "url": "https://i18n.elypia.org/api/changes/1826/"
    },
    {
      "unit": null,
      "component": "https://i18n.elypia.org/api/components/alexis/alexis-messages/",
      "translation": "https://i18n.elypia.org/api/translations/alexis/alexis-messages/en/",
      "glossary_term": null,
      "user": null,
      "author": null,
      "timestamp": "2020-06-17T03:34:35.404464Z",
      "action": 0,
      "target": "",
      "id": 1827,
      "action_name": "Resource update",
      "url": "https://i18n.elypia.org/api/changes/1827/"
    },
    {
      "unit": null,
      "component": "https://i18n.elypia.org/api/components/alexis/alexis-messages/",
      "translation": "https://i18n.elypia.org/api/translations/alexis/alexis-messages/bs/",
      "glossary_term": null,
      "user": null,
      "author": null,
      "timestamp": "2020-06-17T03:34:38.646080Z",
      "action": 0,
      "target": "",
      "id": 1828,
      "action_name": "Resource update",
      "url": "https://i18n.elypia.org/api/changes/1828/"
    },
    {
      "unit": null,
      "component": "https://i18n.elypia.org/api/components/alexis/alexis-messages/",
      "translation": "https://i18n.elypia.org/api/translations/alexis/alexis-messages/da/",
      "glossary_term": null,
      "user": null,
      "author": null,
      "timestamp": "2020-06-17T03:34:41.226211Z",
      "action": 0,
      "target": "",
      "id": 1829,
      "action_name": "Resource update",
      "url": "https://i18n.elypia.org/api/changes/1829/"
    },
    {
      "unit": null,
      "component": "https://i18n.elypia.org/api/components/alexis/alexis-messages/",
      "translation": "https://i18n.elypia.org/api/translations/alexis/alexis-messages/de/",
      "glossary_term": null,
      "user": null,
      "author": null,
      "timestamp": "2020-06-17T03:34:43.732327Z",
      "action": 0,
      "target": "",
      "id": 1830,
      "action_name": "Resource update",
      "url": "https://i18n.elypia.org/api/changes/1830/"
    },
    {
      "unit": null,
      "component": "https://i18n.elypia.org/api/components/alexis/alexis-messages/",
      "translation": "https://i18n.elypia.org/api/translations/alexis/alexis-messages/fr/",
      "glossary_term": null,
      "user": null,
      "author": null,
      "timestamp": "2020-06-17T03:34:46.187366Z",
      "action": 0,
      "target": "",
      "id": 1831,
      "action_name": "Resource update",
      "url": "https://i18n.elypia.org/api/changes/1831/"
    },
    {
      "unit": null,
      "component": "https://i18n.elypia.org/api/components/alexis/alexis-messages/",
      "translation": "https://i18n.elypia.org/api/translations/alexis/alexis-messages/nl/",
      "glossary_term": null,
      "user": null,
      "author": null,
      "timestamp": "2020-06-17T03:34:49.015907Z",
      "action": 0,
      "target": "",
      "id": 1832,
      "action_name": "Resource update",
      "url": "https://i18n.elypia.org/api/changes/1832/"
    },
    {
      "unit": null,
      "component": "https://i18n.elypia.org/api/components/alexis/alexis-messages/",
      "translation": "https://i18n.elypia.org/api/translations/alexis/alexis-messages/nb_NO/",
      "glossary_term": null,
      "user": null,
      "author": null,
      "timestamp": "2020-06-17T03:34:51.744690Z",
      "action": 0,
      "target": "",
      "id": 1833,
      "action_name": "Resource update",
      "url": "https://i18n.elypia.org/api/changes/1833/"
    },
    {
      "unit": null,
      "component": "https://i18n.elypia.org/api/components/alexis/alexis-messages/",
      "translation": "https://i18n.elypia.org/api/translations/alexis/alexis-messages/pl/",
      "glossary_term": null,
      "user": null,
      "author": null,
      "timestamp": "2020-06-17T03:34:54.404184Z",
      "action": 0,
      "target": "",
      "id": 1834,
      "action_name": "Resource update",
      "url": "https://i18n.elypia.org/api/changes/1834/"
    },
    {
      "unit": null,
      "component": "https://i18n.elypia.org/api/components/alexis/alexis-messages/",
      "translation": "https://i18n.elypia.org/api/translations/alexis/alexis-messages/bs/",
      "glossary_term": null,
      "user": null,
      "author": null,
      "timestamp": "2020-06-17T03:34:55.384940Z",
      "action": 44,
      "target": "",
      "id": 1835,
      "action_name": "New string to translate",
      "url": "https://i18n.elypia.org/api/changes/1835/"
    },
    {
      "unit": null,
      "component": "https://i18n.elypia.org/api/components/alexis/alexis-messages/",
      "translation": "https://i18n.elypia.org/api/translations/alexis/alexis-messages/da/",
      "glossary_term": null,
      "user": null,
      "author": null,
      "timestamp": "2020-06-17T03:34:55.392883Z",
      "action": 44,
      "target": "",
      "id": 1836,
      "action_name": "New string to translate",
      "url": "https://i18n.elypia.org/api/changes/1836/"
    },
    {
      "unit": null,
      "component": "https://i18n.elypia.org/api/components/alexis/alexis-messages/",
      "translation": "https://i18n.elypia.org/api/translations/alexis/alexis-messages/de/",
      "glossary_term": null,
      "user": null,
      "author": null,
      "timestamp": "2020-06-17T03:34:55.401204Z",
      "action": 44,
      "target": "",
      "id": 1837,
      "action_name": "New string to translate",
      "url": "https://i18n.elypia.org/api/changes/1837/"
    },
    {
      "unit": null,
      "component": "https://i18n.elypia.org/api/components/alexis/alexis-messages/",
      "translation": "https://i18n.elypia.org/api/translations/alexis/alexis-messages/fr/",
      "glossary_term": null,
      "user": null,
      "author": null,
      "timestamp": "2020-06-17T03:34:55.421218Z",
      "action": 44,
      "target": "",
      "id": 1838,
      "action_name": "New string to translate",
      "url": "https://i18n.elypia.org/api/changes/1838/"
    },
    {
      "unit": null,
      "component": "https://i18n.elypia.org/api/components/alexis/alexis-messages/",
      "translation": "https://i18n.elypia.org/api/translations/alexis/alexis-messages/nl/",
      "glossary_term": null,
      "user": null,
      "author": null,
      "timestamp": "2020-06-17T03:34:55.437669Z",
      "action": 44,
      "target": "",
      "id": 1839,
      "action_name": "New string to translate",
      "url": "https://i18n.elypia.org/api/changes/1839/"
    },
    {
      "unit": null,
      "component": "https://i18n.elypia.org/api/components/alexis/alexis-messages/",
      "translation": "https://i18n.elypia.org/api/translations/alexis/alexis-messages/nb_NO/",
      "glossary_term": null,
      "user": null,
      "author": null,
      "timestamp": "2020-06-17T03:34:55.445653Z",
      "action": 44,
      "target": "",
      "id": 1840,
      "action_name": "New string to translate",
      "url": "https://i18n.elypia.org/api/changes/1840/"
    },
    {
      "unit": null,
      "component": "https://i18n.elypia.org/api/components/alexis/alexis-messages/",
      "translation": "https://i18n.elypia.org/api/translations/alexis/alexis-messages/pl/",
      "glossary_term": null,
      "user": null,
      "author": null,
      "timestamp": "2020-06-17T03:34:55.455026Z",
      "action": 44,
      "target": "",
      "id": 1841,
      "action_name": "New string to translate",
      "url": "https://i18n.elypia.org/api/changes/1841/"
    },
    {
      "unit": null,
      "component": "https://i18n.elypia.org/api/components/alexis/alexis-messages/",
      "translation": null,
      "glossary_term": null,
      "user": null,
      "author": null,
      "timestamp": "2020-06-17T22:20:54.737780Z",
      "action": 53,
      "target": "",
      "id": 1905,
      "action_name": "Received repository notification",
      "url": "https://i18n.elypia.org/api/changes/1905/"
    },
    {
      "unit": null,
      "component": "https://i18n.elypia.org/api/components/alexis/alexis-messages/",
      "translation": null,
      "glossary_term": null,
      "user": null,
      "author": null,
      "timestamp": "2020-06-17T22:20:56.624843Z",
      "action": 21,
      "target": "",
      "id": 1906,
      "action_name": "Rebased repository",
      "url": "https://i18n.elypia.org/api/changes/1906/"
    },
    {
      "unit": null,
      "component": "https://i18n.elypia.org/api/components/alexis/alexis-messages/",
      "translation": null,
      "glossary_term": null,
      "user": null,
      "author": null,
      "timestamp": "2020-06-26T07:36:55.877090Z",
      "action": 21,
      "target": "",
      "id": 1907,
      "action_name": "Rebased repository",
      "url": "https://i18n.elypia.org/api/changes/1907/"
    }
  ]
}
