{
  "count": 202,
  "next": "https://i18n.elypia.org/api/translations/alexis/alexis-messages/en/units/?page=2",
  "previous": null,
  "results": [
    {
      "translation": "https://i18n.elypia.org/api/translations/alexis/alexis-messages/en/",
      "source": "Deleted / Banned",
      "previous_source": "",
      "target": "Deleted / Banned",
      "id_hash": -9214844893965833113,
      "content_hash": 9148024755946216004,
      "location": "",
      "context": "deleted_or_banned",
      "note": "",
      "flags": "",
      "fuzzy": false,
      "translated": true,
      "approved": false,
      "position": 1,
      "has_suggestion": false,
      "has_comment": false,
      "has_failing_check": false,
      "num_words": 3,
      "priority": 100,
      "id": 12198,
      "web_url": "https://i18n.elypia.org/translate/alexis/alexis-messages/en/?checksum=1e4b642ad82c67",
      "url": "https://i18n.elypia.org/api/units/12198/"
    },
    {
      "translation": "https://i18n.elypia.org/api/translations/alexis/alexis-messages/en/",
      "source": "Guild Owner",
      "previous_source": "",
      "target": "Guild Owner",
      "id_hash": -5006119708294857072,
      "content_hash": -5618385137891979206,
      "location": "",
      "context": "guild_owner",
      "note": "",
      "flags": "",
      "fuzzy": false,
      "translated": true,
      "approved": false,
      "position": 2,
      "has_suggestion": false,
      "has_comment": false,
      "has_failing_check": false,
      "num_words": 2,
      "priority": 100,
      "id": 12199,
      "web_url": "https://i18n.elypia.org/translate/alexis/alexis-messages/en/?checksum=3a86b0a61c00be90",
      "url": "https://i18n.elypia.org/api/units/12199/"
    },
    {
      "translation": "https://i18n.elypia.org/api/translations/alexis/alexis-messages/en/",
      "source": "Prefix",
      "previous_source": "",
      "target": "Prefix",
      "id_hash": 7577058361965011500,
      "content_hash": -8856327943345731605,
      "location": "",
      "context": "command_prefix",
      "note": "",
      "flags": "",
      "fuzzy": false,
      "translated": true,
      "approved": false,
      "position": 3,
      "has_suggestion": false,
      "has_comment": false,
      "has_failing_check": false,
      "num_words": 1,
      "priority": 100,
      "id": 12200,
      "web_url": "https://i18n.elypia.org/translate/alexis/alexis-messages/en/?checksum=e9271e6f6b53e22c",
      "url": "https://i18n.elypia.org/api/units/12200/"
    },
    {
      "translation": "https://i18n.elypia.org/api/translations/alexis/alexis-messages/en/",
      "source": "Locale",
      "previous_source": "",
      "target": "Locale",
      "id_hash": -7345958163825237444,
      "content_hash": 5760440122898312090,
      "location": "",
      "context": "current_locale",
      "note": "",
      "flags": "",
      "fuzzy": false,
      "translated": true,
      "approved": false,
      "position": 4,
      "has_suggestion": false,
      "has_comment": false,
      "has_failing_check": false,
      "num_words": 1,
      "priority": 100,
      "id": 12201,
      "web_url": "https://i18n.elypia.org/translate/alexis/alexis-messages/en/?checksum=1a0de9f87650e23c",
      "url": "https://i18n.elypia.org/api/units/12201/"
    },
    {
      "translation": "https://i18n.elypia.org/api/translations/alexis/alexis-messages/en/",
      "source": "Read More",
      "previous_source": "",
      "target": "Read More",
      "id_hash": 5381128928936132635,
      "content_hash": -3710482137551432136,
      "location": "",
      "context": "read_more",
      "note": "",
      "flags": "",
      "fuzzy": false,
      "translated": true,
      "approved": false,
      "position": 5,
      "has_suggestion": false,
      "has_comment": false,
      "has_failing_check": false,
      "num_words": 2,
      "priority": 100,
      "id": 12202,
      "web_url": "https://i18n.elypia.org/translate/alexis/alexis-messages/en/?checksum=caad9c401bd1001b",
      "url": "https://i18n.elypia.org/api/units/12202/"
    },
    {
      "translation": "https://i18n.elypia.org/api/translations/alexis/alexis-messages/en/",
      "source": "Welcome to the guild ${user.mention}!",
      "previous_source": "",
      "target": "Welcome to the guild ${user.mention}!",
      "id_hash": -5143833768557800190,
      "content_hash": -8696167814729132375,
      "location": "",
      "context": "default_user_join_message",
      "note": "",
      "flags": "",
      "fuzzy": false,
      "translated": true,
      "approved": false,
      "position": 6,
      "has_suggestion": false,
      "has_comment": false,
      "has_failing_check": false,
      "num_words": 5,
      "priority": 100,
      "id": 12203,
      "web_url": "https://i18n.elypia.org/translate/alexis/alexis-messages/en/?checksum=389d6e70d1741502",
      "url": "https://i18n.elypia.org/api/units/12203/"
    },
    {
      "translation": "https://i18n.elypia.org/api/translations/alexis/alexis-messages/en/",
      "source": "The bot, ${user.mention} was just invited to the guild. Looking forward to working with you!",
      "previous_source": "",
      "target": "The bot, ${user.mention} was just invited to the guild. Looking forward to working with you!",
      "id_hash": -6233285342875835179,
      "content_hash": 5714712211577926535,
      "location": "",
      "context": "default_bot_join_message",
      "note": "",
      "flags": "",
      "fuzzy": false,
      "translated": true,
      "approved": false,
      "position": 7,
      "has_suggestion": false,
      "has_comment": false,
      "has_failing_check": false,
      "num_words": 15,
      "priority": 100,
      "id": 12204,
      "web_url": "https://i18n.elypia.org/translate/alexis/alexis-messages/en/?checksum=297eec018a3ca4d5",
      "url": "https://i18n.elypia.org/api/units/12204/"
    },
    {
      "translation": "https://i18n.elypia.org/api/translations/alexis/alexis-messages/en/",
      "source": "That's unfortunate; seems ${user.name} is no longer with us. RIP ʕ ಡ ﹏ ಡ ʔ",
      "previous_source": "",
      "target": "That's unfortunate; seems ${user.name} is no longer with us. RIP ʕ ಡ ﹏ ಡ ʔ",
      "id_hash": 3742481579050601920,
      "content_hash": 6186523662874739779,
      "location": "",
      "context": "default_user_leave_message",
      "note": "",
      "flags": "",
      "fuzzy": false,
      "translated": true,
      "approved": false,
      "position": 8,
      "has_suggestion": false,
      "has_comment": false,
      "has_failing_check": false,
      "num_words": 15,
      "priority": 100,
      "id": 12205,
      "web_url": "https://i18n.elypia.org/translate/alexis/alexis-messages/en/?checksum=b3eff72ae9c10dc0",
      "url": "https://i18n.elypia.org/api/units/12205/"
    },
    {
      "translation": "https://i18n.elypia.org/api/translations/alexis/alexis-messages/en/",
      "source": "The bot, ${user.name} was just removed from the guild. I didn't like them anyway.",
      "previous_source": "",
      "target": "The bot, ${user.name} was just removed from the guild. I didn't like them anyway.",
      "id_hash": -7072512193271922377,
      "content_hash": -6384984236434806078,
      "location": "",
      "context": "default_bot_leave_message",
      "note": "",
      "flags": "",
      "fuzzy": false,
      "translated": true,
      "approved": false,
      "position": 9,
      "has_suggestion": false,
      "has_comment": false,
      "has_failing_check": false,
      "num_words": 14,
      "priority": 100,
      "id": 12206,
      "web_url": "https://i18n.elypia.org/translate/alexis/alexis-messages/en/?checksum=1dd963a1ca688137",
      "url": "https://i18n.elypia.org/api/units/12206/"
    },
    {
      "translation": "https://i18n.elypia.org/api/translations/alexis/alexis-messages/en/",
      "source": "Done!",
      "previous_source": "",
      "target": "Done!",
      "id_hash": 9110810036513564704,
      "content_hash": -6060025202812546056,
      "location": "",
      "context": "done",
      "note": "",
      "flags": "",
      "fuzzy": false,
      "translated": true,
      "approved": false,
      "position": 10,
      "has_suggestion": false,
      "has_comment": false,
      "has_failing_check": false,
      "num_words": 1,
      "priority": 100,
      "id": 12207,
      "web_url": "https://i18n.elypia.org/translate/alexis/alexis-messages/en/?checksum=fe70197502746820",
      "url": "https://i18n.elypia.org/api/units/12207/"
    },
    {
      "translation": "https://i18n.elypia.org/api/translations/alexis/alexis-messages/en/",
      "source": "ID: %s",
      "previous_source": "",
      "target": "ID: %s",
      "id_hash": -3510396737836100993,
      "content_hash": 3533083890193876648,
      "location": "",
      "context": "unique_identifier",
      "note": "",
      "flags": "",
      "fuzzy": false,
      "translated": true,
      "approved": false,
      "position": 11,
      "has_suggestion": false,
      "has_comment": false,
      "has_failing_check": false,
      "num_words": 2,
      "priority": 100,
      "id": 12208,
      "web_url": "https://i18n.elypia.org/translate/alexis/alexis-messages/en/?checksum=4f4890c40c96d27f",
      "url": "https://i18n.elypia.org/api/units/12208/"
    },
    {
      "translation": "https://i18n.elypia.org/api/translations/alexis/alexis-messages/en/",
      "source": "The global level notification feature is enabled but no message is set, disabling global level notifications.",
      "previous_source": "",
      "target": "The global level notification feature is enabled but no message is set, disabling global level notifications.",
      "id_hash": 1117151159874021779,
      "content_hash": 1115481469427516882,
      "location": "",
      "context": "audit_level_enabled_no_message",
      "note": "",
      "flags": "",
      "fuzzy": false,
      "translated": true,
      "approved": false,
      "position": 12,
      "has_suggestion": false,
      "has_comment": false,
      "has_failing_check": false,
      "num_words": 16,
      "priority": 100,
      "id": 12209,
      "web_url": "https://i18n.elypia.org/translate/alexis/alexis-messages/en/?checksum=8f80eb0f9cb4e993",
      "url": "https://i18n.elypia.org/api/units/12209/"
    },
    {
      "translation": "https://i18n.elypia.org/api/translations/alexis/alexis-messages/en/",
      "source": "Well done you went from level %,d to level %,d!",
      "previous_source": "",
      "target": "Well done you went from level %,d to level %,d!",
      "id_hash": 656907271219297455,
      "content_hash": -5140398918853378709,
      "location": "",
      "context": "user_leveled_up",
      "note": "",
      "flags": "",
      "fuzzy": false,
      "translated": true,
      "approved": false,
      "position": 13,
      "has_suggestion": false,
      "has_comment": false,
      "has_failing_check": false,
      "num_words": 10,
      "priority": 100,
      "id": 12210,
      "web_url": "https://i18n.elypia.org/translate/alexis/alexis-messages/en/?checksum=891dcdaec765bcaf",
      "url": "https://i18n.elypia.org/api/units/12210/"
    },
    {
      "translation": "https://i18n.elypia.org/api/translations/alexis/alexis-messages/en/",
      "source": "Thanks for inviting me! By default, you can mention me to perform commands, but you can set a prefix with `@Me prefix set \"{prefix}\"`! Feel free to do `@Me help`!",
      "previous_source": "",
      "target": "Thanks for inviting me! By default, you can mention me to perform commands, but you can set a prefix with `@Me prefix set \"{prefix}\"`! Feel free to do `@Me help`!",
      "id_hash": 6511681665479776639,
      "content_hash": 6571788056554943808,
      "location": "",
      "context": "thank_you_for_invite",
      "note": "",
      "flags": "",
      "fuzzy": false,
      "translated": true,
      "approved": false,
      "position": 14,
      "has_suggestion": false,
      "has_comment": false,
      "has_failing_check": false,
      "num_words": 30,
      "priority": 100,
      "id": 12211,
      "web_url": "https://i18n.elypia.org/translate/alexis/alexis-messages/en/?checksum=da5e23f97158997f",
      "url": "https://i18n.elypia.org/api/units/12211/"
    },
    {
      "translation": "https://i18n.elypia.org/api/translations/alexis/alexis-messages/en/",
      "source": "The request failed for some reason.",
      "previous_source": "",
      "target": "The request failed for some reason.",
      "id_hash": 8981461307846554882,
      "content_hash": 2114990676008306272,
      "location": "",
      "context": "request_failed_unknown_reason",
      "note": "",
      "flags": "",
      "fuzzy": false,
      "translated": true,
      "approved": false,
      "position": 15,
      "has_suggestion": false,
      "has_comment": false,
      "has_failing_check": false,
      "num_words": 6,
      "priority": 100,
      "id": 12212,
      "web_url": "https://i18n.elypia.org/translate/alexis/alexis-messages/en/?checksum=fca48f79421bf502",
      "url": "https://i18n.elypia.org/api/units/12212/"
    },
    {
      "translation": "https://i18n.elypia.org/api/translations/alexis/alexis-messages/en/",
      "source": "Successfully left the guild.",
      "previous_source": "",
      "target": "Successfully left the guild.",
      "id_hash": 8365705782387636954,
      "content_hash": -7223100921980867476,
      "location": "",
      "context": "dev_left_guild",
      "note": "",
      "flags": "",
      "fuzzy": false,
      "translated": true,
      "approved": false,
      "position": 16,
      "has_suggestion": false,
      "has_comment": false,
      "has_failing_check": false,
      "num_words": 4,
      "priority": 100,
      "id": 12213,
      "web_url": "https://i18n.elypia.org/translate/alexis/alexis-messages/en/?checksum=f418f515eea57ada",
      "url": "https://i18n.elypia.org/api/units/12213/"
    },
    {
      "translation": "https://i18n.elypia.org/api/translations/alexis/alexis-messages/en/",
      "source": "Actually, **%s** is already what my username is. ^-^'",
      "previous_source": "",
      "target": "Actually, **%s** is already what my username is. ^-^'",
      "id_hash": -7153742147370857124,
      "content_hash": -707218048863525979,
      "location": "",
      "context": "dev_rename_no_change",
      "note": "",
      "flags": "",
      "fuzzy": false,
      "translated": true,
      "approved": false,
      "position": 17,
      "has_suggestion": false,
      "has_comment": false,
      "has_failing_check": false,
      "num_words": 9,
      "priority": 100,
      "id": 12214,
      "web_url": "https://i18n.elypia.org/translate/alexis/alexis-messages/en/?checksum=1cb8cd6b4b384d5c",
      "url": "https://i18n.elypia.org/api/units/12214/"
    },
    {
      "translation": "https://i18n.elypia.org/api/translations/alexis/alexis-messages/en/",
      "source": "Wonderful, you can call me **%s** now!",
      "previous_source": "",
      "target": "Wonderful, you can call me **%s** now!",
      "id_hash": 8082569887894634011,
      "content_hash": 6672597211447846026,
      "location": "",
      "context": "dev_changed_bots_name",
      "note": "",
      "flags": "",
      "fuzzy": false,
      "translated": true,
      "approved": false,
      "position": 18,
      "has_suggestion": false,
      "has_comment": false,
      "has_failing_check": false,
      "num_words": 7,
      "priority": 100,
      "id": 12215,
      "web_url": "https://i18n.elypia.org/translate/alexis/alexis-messages/en/?checksum=f02b0e7d603a7e1b",
      "url": "https://i18n.elypia.org/api/units/12215/"
    },
    {
      "translation": "https://i18n.elypia.org/api/translations/alexis/alexis-messages/en/",
      "source": "My avatar has successfully been changed! Go check it out!",
      "previous_source": "",
      "target": "My avatar has successfully been changed! Go check it out!",
      "id_hash": 5405059911367056096,
      "content_hash": -1275354215573595377,
      "location": "",
      "context": "dev_changed_bots_avatar",
      "note": "",
      "flags": "",
      "fuzzy": false,
      "translated": true,
      "approved": false,
      "position": 19,
      "has_suggestion": false,
      "has_comment": false,
      "has_failing_check": false,
      "num_words": 10,
      "priority": 100,
      "id": 12216,
      "web_url": "https://i18n.elypia.org/translate/alexis/alexis-messages/en/?checksum=cb02a15a26bcdae0",
      "url": "https://i18n.elypia.org/api/units/12216/"
    },
    {
      "translation": "https://i18n.elypia.org/api/translations/alexis/alexis-messages/en/",
      "source": "%s | %s (%,d Members)",
      "previous_source": "",
      "target": "%s | %s (%,d Members)",
      "id_hash": -5219542832572267762,
      "content_hash": 2915540328822402589,
      "location": "",
      "context": "dev_guild_info",
      "note": "",
      "flags": "",
      "fuzzy": false,
      "translated": true,
      "approved": false,
      "position": 20,
      "has_suggestion": false,
      "has_comment": false,
      "has_failing_check": false,
      "num_words": 5,
      "priority": 100,
      "id": 12217,
      "web_url": "https://i18n.elypia.org/translate/alexis/alexis-messages/en/?checksum=37907572b698030e",
      "url": "https://i18n.elypia.org/api/units/12217/"
    }
  ]
}
